Download Data File And Database Urls from TUIK • tuik
…
# stab <- statistical_tables("aaa")
#> Error in check_theme_id(theme) : 
#>  You should select a valid theme ID!

# stab <- statistical_tables(c(123, 143))
#> Error in check_theme_id(theme) : You can select only one theme!

(stab <- statistical_tables("110"))
#> # A tibble: 52 × 5
#>    theme_name      theme_id data_name                    data_date  datafile_url
#>    <chr>           <chr>    <chr>                        <date>     <chr>       
#>  1 Adalet ve Seçim 110      Hükümlü ve Tutuklu Sayısı    2021-11-02 http://data…
#>  2 Adalet ve Seçim 110      Suç Türü ve Medeni Durumuna… 2021-11-02 http://data…
#>  3 Adalet ve Seçim 110      İBBS, 1. Düzeyde, Suç Türü … 2021-11-02 http://data…
#>  4 Adalet ve Seçim 110      İBBS 3. Düzeyde, Daimi İkam… 2021-11-02 http://data…
#>  5 Adalet ve Seçim 110      Suç Türü ve Uyruğuna Göre C… 2021-11-02 http://data…
#>  6 Adalet ve Seçim 110      Suç Türü ve Eğitim Durumuna… 2021-11-02 http://data…
#>  7 Adalet ve Seçim 110      Suç Türü ve Suçun İşlendiği… 2021-11-02 http://data…
#>  8 Adalet ve Seçim 110      İBBS, 3. Düzeyde, Suç Türü … 2021-11-02 http://data…
#>  9 Adalet ve Seçim 110      Suç Türü ve Suçun İşlendiği… 2021-11-02 http://data…
#> 10 Adalet ve Seçim 110      İBBS 3. Düzeyde, Suçun İşle… 2021-11-02 http://data…
#> # ℹ 42 more rows
…
# -------------------------------------------------------------------------- ###
# All DB Links---- NOT WORKING AT THIS TIME. TUIK CHANGED THE PAGE
# -------------------------------------------------------------------------- ###
# all_dbs <- purrr::map_df(.x = st$theme_id, .f = ~statistical_databases(.x))
# 
# all_dbs %>%
#   dplyr::count(theme_name, name = "database_count")

# -------------------------------------------------------------------------- ###
# Download Geo Data----
# -------------------------------------------------------------------------- ###
# Download Variable Names and Codes
(dt <- geo_data())
#> # A tibble: 76 × 6
#>    var_name               var_num var_levels var_period var_source var_recordnum
#>    <chr>                  <chr>   <list>     <chr>      <chr>              <dbl>
#>  1 Atık hizmeti verilen … CVRBA-… <dbl [2]>  yillik     medas                  5
#>  2 Atıksu Arıtma Hizmeti… CVRAS-… <dbl [2]>  yillik     medas                  5
#>  3 Kişi Başı Günlük Atık… CVRAS-… <dbl [2]>  yillik     medas                  5
#>  4 Kanalizasyon Hizmeti … CVRAS-… <dbl [2]>  yillik     medas                  5
#>  5 İçme Suyu Şebekesi Bu… CVRBS-… <dbl [2]>  yillik     medas                  5
#>  6 İçme Suyu Arıtma Hizm… CVRBS-… <dbl [2]>  yillik     medas                  5
#>  7 Kişi Başına Elektrik … ENR-GK… <dbl [1]>  yillik     ilGosterg…             5
#>  8 Okuma Yazma Bilmeyen … ULE-GK… <dbl [3]>  yillik     medas                  5
#>  9 Sinema Salon Sayısı    SNM-GK… <dbl [2]>  yillik     medas                  5
#> 10 Sinema Film Sayısı     SNM-GK… <dbl [2]>  yillik     medas                  5
#> # ℹ 66 more rows

# Download data for a given level and variable
dt |> 
  filter(var_num == "SNM-GK160951-O33303")
#> # A tibble: 1 × 6
#>   var_name           var_num      var_levels var_period var_source var_recordnum
#>   <chr>              <chr>        <list>     <chr>      <chr>              <dbl>
#> 1 Sinema Film Sayısı SNM-GK16095… <dbl [2]>  yillik     medas                  5

(dt_x <- geo_data(variable_level = 3, 
                  variable_no = "SNM-GK160951-O33303", 
                  variable_source = "medas", 
                  variable_period = "yillik", 
                  variable_recnum = 5))
#> # A tibble: 405 × 3
#>    code  date  sinema_film_sayisi
#>    <chr> <chr> <chr>             
#>  1 39    2022  278               
#>  2 39    2021  144               
#>  3 39    2020  112               
#>  4 39    2019  368               
#>  5 39    2018  384               
#>  6 68    2022  128               
#>  7 68    2021  83                
#>  8 68    2020  53                
#>  9 68    2019  134               
#> 10 68    2018  86                
#> # ℹ 395 more rows

# (dt <- geo_data(4, "TFE-GK105747-O23001"))
#> Error in value[[3L]](cond) : 
#>  This data (TFE-GK105747-O23001) is not available at this NUTS level (level = 4)!!!

# -------------------------------------------------------------------------- ###
# Download Geo Map----
# -------------------------------------------------------------------------- ###
(dt_sf <- geo_map(9))
#> Simple feature collection with 1003 features and 4 fields
#> Geometry type: POINT
#> Dimension:     XY
#> Bounding box:  xmin: 25.8861 ymin: 35.9023 xmax: 44.5762 ymax: 42.0245
#> Geodetic CRS:  WGS 84
#> # A tibble: 1,003 × 5
#>    ad            tp    bs    bm          geometry
#>    <chr>      <int> <int> <int>       <POINT [°]>
#>  1 İSTANBUL       1     1     1 (29.0107 41.6219)
#>  2 ANKARA         1     1     1 (32.8478 39.9383)
#>  3 İZMİR          1     1     1 (27.1529 38.4102)
#>  4 DİYARBAKIR     1     1     1  (40.2125 37.924)
#>  5 ESKİŞEHİR      1     1     0 (30.4944 39.7685)
#>  6 ANTALYA        1     1     1 (30.6962 36.9071)
#>  7 HATAY          1     1     1 (36.1588 36.1988)
#>  8 MERSİN         1     1     0 (34.6544 36.8217)
#>  9 KAYSERİ        1     1     1 (35.8886 38.7222)
#> 10 MARDİN         1     1     0 (40.7377 37.3122)
#> # ℹ 993 more rows

(dt_sf <- geo_map(3))
#> Simple feature collection with 81 features and 5 fields
#> Geometry type: MULTIPOLYGON
#> Dimension:     XY
#> Bounding box:  xmin: 25.66 ymin: 35.81 xmax: 44.81 ymax: 42.1
#> Geodetic CRS:  WGS 84
#> # A tibble: 81 × 6
#>    code  bolgeKodu nutsKodu name           ad                           geometry
#>  * <chr> <chr>     <chr>    <chr>          <chr>              <MULTIPOLYGON [°]>
#>  1 9     TR32      TR321    AYDIN          AYDIN       (((28.2497 37.5499, 28.2…
#>  2 1     TR62      TR621    ADANA          ADANA       (((36.18 37.7096, 36.189…
#>  3 2     TRC1      TRC12    ADIYAMAN       ADIYAMAN    (((38.9199 37.8197, 38.9…
#>  4 3     TR33      TR332    AFYONKARAHİSAR AFYONKARAH… (((30.6098 38.2199, 30.5…
#>  5 7     TR61      TR611    ANTALYA        ANTALYA     (((32.1898 36.9604, 32.2…
#>  6 20    TR32      TR322    DENİZLİ        DENİZLİ     (((28.76 37.2496, 28.729…
#>  7 37    TR82      TR821    KASTAMONU      KASTAMONU   (((33.7802 41.0398, 33.7…
#>  8 10    TR22      TR221    BALIKESİR      BALIKESİR   (((26.9896 39.2999, 26.9…
#>  9 32    TR61      TR612    ISPARTA        ISPARTA     (((31.3504 37.5899, 31.3…
#> 10 35    TR31      TR310    İZMİR          İZMİR       (((27.6001 38.4797, 27.6…
#> # ℹ 71 more rows
…
