…
# stab <- statistical_tables("aaa")
#> Error in check_theme_id(theme) : 
#>  You should select a valid theme ID!

# stab <- statistical_tables(c(123, 143))
#> Error in check_theme_id(theme) : You can select only one theme!

(stab <- statistical_tables("110"))
#> # A tibble: 54 x 5
#>    theme_name   theme_id data_name                             data_date  datafile_url                               
#>    <chr>        <chr>    <chr>                                 <date>     <chr>                                      
#>  1 Adalet ve S… 110      Suç Türü ve Suçun İşlendiği Yaş Grub… 2020-11-02 http://data.tuik.gov.tr/Bulten/DownloadIst…
#>  2 Adalet ve S… 110      İBBS, 3. Düzeyde, Suç Türü ve Suçun … 2020-11-02 http://data.tuik.gov.tr/Bulten/DownloadIst…
#>  3 Adalet ve S… 110      Suç Türü ve Uyruğuna Göre Ceza İnfaz… 2020-11-02 http://data.tuik.gov.tr/Bulten/DownloadIst…
#>  4 Adalet ve S… 110      Suç Türü ve Medeni Durumuna Göre Cez… 2020-11-02 http://data.tuik.gov.tr/Bulten/DownloadIst…
#>  5 Adalet ve S… 110      Suç Türü ve Eğitim Durumuna Göre Cez… 2020-11-02 http://data.tuik.gov.tr/Bulten/DownloadIst…
#>  6 Adalet ve S… 110      İBBS 3. Düzeyde, Daimi İkametgah ve … 2020-11-02 http://data.tuik.gov.tr/Bulten/DownloadIst…
#>  7 Adalet ve S… 110      Hükümlü ve Tutuklu Sayısı             2020-11-02 http://data.tuik.gov.tr/Bulten/DownloadIst…
#>  8 Adalet ve S… 110      İBBS, 1. Düzeyde, Suç Türü ve Suçun … 2020-11-02 http://data.tuik.gov.tr/Bulten/DownloadIst…
#>  9 Adalet ve S… 110      Suç Türü ve Suçun İşlendiği Andaki Y… 2020-11-02 http://data.tuik.gov.tr/Bulten/DownloadIst…
#> 10 Adalet ve S… 110      Suç Türü ve Uyruğuna Göre Ceza İnfaz… 2020-11-02 http://data.tuik.gov.tr/Bulten/DownloadIst…
#> # … with 44 more rows
…
# -------------------------------------------------------------------------- ###
# Download Geo Data----
# -------------------------------------------------------------------------- ###
# Download Variable Names and Codes
(dt <- geo_data())
#> # A tibble: 49 x 2
#>    variable_name                                    variable_no           
#>    <chr>                                            <chr>                 
#>  1 Atık Hizmeti Verilen Nüfus Oranı (%)             CVRBA-GK1697126-O40505
#>  2 Atıksu Arıtma Hizmeti Verilen Nüfus Oranı (%)    CVRAS-GK179211-O40717 
#>  3 Kişi Başı Günlük Atıksu Miktarı (L/Kişi-Gün)     CVRAS-GK179213-O40718 
#>  4 Kanalizasyon Hizmeti Verilen Nüfus Oranı (%)     CVRAS-GK179060-O40709 
#>  5 İçme Suyu Şebekesi Bulunan Nüfus Oranı (%)       CVRBS-GK1697172-O40909
#>  6 İçme Suyu Arıtma Hizmeti Verilen Nüfus Oranı (%) CVRBS-GK1697194-O40921
#>  7 Kişi Başına Elektrik Tüketimi (kWh)              ENR-GK054-O0015       
#>  8 Okuma Yazma Bilmeyen Sayısı                      ULE-GK160887-O29502   
#>  9 Sinema Salon Sayısı                              SNM-GK160947-O33301   
#> 10 Sinema Film Sayısı                               SNM-GK160951-O33303   
#> # … with 39 more rows
…
#> * `` -> ...4
#> * `` -> ...5
#> New names:
#> * `` -> ...1
#> * `` -> ...2
#> * `` -> ...3
#> * `` -> ...4
#> * `` -> ...5
#> New names:
#> * `` -> ...1
#> * `` -> ...2
#> * `` -> ...3
#> * `` -> ...4
#> * `` -> ...5
#> # A tibble: 130 x 3
#>    code  date  sinema_film_sayisi
#>    <chr> <chr>              <dbl>
#>  1 TR83  2019                1838
#>  2 TR83  2018                1568
#>  3 TR83  2017                1577
#>  4 TR83  2016                1284
#>  5 TR83  2015                1656
#>  6 TR72  2019                1647
#>  7 TR72  2018                1561
#>  8 TR72  2017                1318
#>  9 TR72  2016                 962
#> 10 TR72  2015                1035
#> # … with 120 more rows
…
